{
  "$schema": "https://json-schema.org/draft/2019-09/schema#",
  "$id": "http://example.com/some.schema.json",
  "type": "object",
  "properties": {
    "A": {
      "type": "object",
      "allOf": []
    }
  }
}

