{
  "$schema": "https://json-schema.org/draft/2019-09/schema#",
  "$id": "http://example.com/some.schema.json",
  "type": "object",
  "properties": {
    "A": {
      "type": "object",
      "properties": {},
      "$comment": 1.1
    },
    "B": {
      "type": "array",
      "items": {
        "type": "string",
        "$comment": false
      }
    }
  },
  "$comment": 0
}
